{
    "project_title": null,
    "project_basic_name": "{{ cookiecutter.project_title.lower().replace(' ', '-') }}",
    "project_slug": "{{ cookiecutter.project_basic_name.lower().replace(' ', '_').replace('-', '_') }}",
    "project_summary": null,
    "dev_email": "eugene@kovalev.systems",
    "dev_name": "Eugene Kovalev",
    "project_url": "https://gitlab.com/abraxos/{{ cookiecutter.project_basic_name }}"
}
